<?xml version="1.0" encoding="utf-8"?>
<!-- Generator: Adobe Illustrator 16.0.0, SVG Export Plug-In . SVG Version: 6.00 Build 0)  -->
<!DOCTYPE svg PUBLIC "-//W3C//DTD SVG 1.1//EN" "http://www.w3.org/Graphics/SVG/1.1/DTD/svg11.dtd">
<svg version="1.1" id="Layer_1" xmlns="http://www.w3.org/2000/svg" xmlns:xlink="http://www.w3.org/1999/xlink" x="0px" y="0px"
	 width="100px" height="100px" viewBox="0 0 100 100" enable-background="new 0 0 100 100" xml:space="preserve">
<path fill="#1E88E5" d="M87.466,42.307H82.37V23.067C82.37,11.209,71.354,0,59.722,0H40.275c-11.629,0-22.647,11.21-22.647,23.068
	v19.239h-5.095c-1.39,0-2.521,1.01-2.521,2.259v53.176c0,1.25,1.131,2.259,2.521,2.259h74.933c1.391,0,2.522-1.009,2.522-2.259
	V44.565C89.988,43.316,88.856,42.307,87.466,42.307 M32.862,23.067c0-5.385,2.391-7.684,7.616-7.684h19.042
	c5.227,0,7.617,2.299,7.617,7.684v19.239H32.862V23.067z M53.807,70.888v9.881c0,1.062-0.856,1.924-1.902,1.924h-3.809
	c-1.048,0-1.905-0.862-1.905-1.924v-9.881c-2.271-1.334-3.808-3.786-3.808-6.627c0-4.249,3.409-7.688,7.616-7.688
	c4.204,0,7.616,3.439,7.616,7.688C57.615,67.102,56.078,69.554,53.807,70.888"/>
</svg>
