[
  "authenticatingPage.html",
  "salusDropdown.html",
  "salusDropdownItem.html",
  "salusDropdownItemNoi18N.html",
  "salusDropdownNoi18N.html",
  "salusForms/formTextInput.html",
  "salusForms/salusCheckbox.html",
  "salusForms/salusRadio.html",
  "spinnerPage.html"
]